{
  "$schema": "http://cyclonedx.org/schema/bom-1.5.schema.json",
  "bomFormat": "CycloneDX",
  "specVersion": "1.5",
  "serialNumber": "urn:uuid:3e671687-395b-41f5-a30f-a58921a69b79",
  "version": 1,
  "metadata": {
    "timestamp": "2021-09-01T10:50:42.051979+00:00",
    "tools": [
      {
        "vendor": "CycloneDX",
        "name": "cyclonedx-python-lib",
        "version": "VERSION",
        "externalReferences": [
          {
            "type": "build-system",
            "url": "https://github.com/CycloneDX/cyclonedx-python-lib/actions"
          },
          {
            "type": "distribution",
            "url": "https://pypi.org/project/cyclonedx-python-lib/"
          },
          {
            "type": "documentation",
            "url": "https://cyclonedx.github.io/cyclonedx-python-lib/"
          },
          {
            "type": "issue-tracker",
            "url": "https://github.com/CycloneDX/cyclonedx-python-lib/issues"
          },
          {
            "type": "license",
            "url": "https://github.com/CycloneDX/cyclonedx-python-lib/blob/main/LICENSE"
          },
          {
            "type": "release-notes",
            "url": "https://github.com/CycloneDX/cyclonedx-python-lib/blob/main/CHANGELOG.md"
          },
          {
            "type": "vcs",
            "url": "https://github.com/CycloneDX/cyclonedx-python-lib"
          },
          {
            "type": "website",
            "url": "https://cyclonedx.org"
          }
        ]
      }
    ]
  },
  "components": [
    {
      "type": "library",
      "bom-ref": "pkg:pypi/setuptools@50.3.2?extension=tar.gz",
      "author": "Test Author",
      "name": "setuptools",
      "version": "50.3.2",
      "licenses": [
        {
          "expression": "MIT License"
        }
      ],
      "purl": "pkg:pypi/setuptools@50.3.2?extension=tar.gz",
      "releaseNotes": {
        "type": "major",
        "title": "Release Notes Title",
        "featuredImage": "https://cyclonedx.org/theme/assets/images/CycloneDX-Twitter-Card.png",
        "socialImage": "https://cyclonedx.org/cyclonedx-icon.png",
        "description": "This release is a test release",
        "timestamp": "2021-12-31T10:00:00+00:00",
        "aliases": ["First Test Release"],
        "tags": ["test", "alpha"],
        "resolves": [
          {
            "type": "security",
            "id": "CVE-2021-44228",
            "name": "Apache Log3Shell",
            "description": "Apache Log4j2 2.0-beta9 through 2.12.1 and 2.13.0 through 2.15.0 JNDI features...",
            "source": {
              "name": "NVD",
              "url": "https://nvd.nist.gov/vuln/detail/CVE-2021-44228"
            },
            "references": [
              "https://logging.apache.org/log4j/2.x/security.html",
              "https://central.sonatype.org/news/20211213_log4shell_help"
            ]
          }
        ],
        "notes": [
          {
            "locale": "en-GB",
            "text": {
              "contentType": "text/plain; charset=UTF-8",
              "encoding": "base64",
              "content": "U29tZSBzaW1wbGUgcGxhaW4gdGV4dA=="
            }
          },
          {
            "locale": "en-US",
            "text": {
              "contentType": "text/plain; charset=UTF-8",
              "encoding": "base64",
              "content": "U29tZSBzaW1wbGUgcGxhaW4gdGV4dA=="
            }
          }
        ],
        "properties": [
          {
            "name": "key1",
            "value": "val1"
          },
          {
            "name": "key2",
            "value": "val2"
          }
        ]
      }
    }
  ],
  "dependencies": [
    {
      "ref": "pkg:pypi/setuptools@50.3.2?extension=tar.gz",
      "dependsOn": []
    }
  ]
}
